[
  {
    "count": 0,
    "title": "Postdigital - Wikipedia",
    "links": "https://en.wikipedia.org/wiki/Postdigital",
    "snippet": "Postdigital, in artistic practice, is an\n                                attitude that is more concerned with being human, than with being digital, similar to\n                                the concept of \"undigital\" introduced in 1995, where technology and society advances\n                                beyond digital limitations to achieve a totally fluid multimediated reality that is free\n                                from artefacts of digital computation ..."
  },
  {
    "count": 1,
    "title": "The postdigital turn: Philosophy,\n                                education, research",
    "links": "https://journals.sagepub.com/doi/10.1177/14782103211062713",
    "snippet": "Abstract. This article develops a post-determinist and\n                                a post-instrumentalist understanding of education and educational research through the\n                                lens of postdigital theory. We begin with historicizing current\n                                postdigital research by showing its intellectual ancestry and recognizing its\n                                rapidly changing nature."
  },
  {
    "count": 2,
    "title": "Full article: Postdigital science and\n                                education - Taylor & Francis Online",
    "links": "https://www.tandfonline.com/doi/full/10.1080/00131857.2018.1454000",
    "snippet": "One of the first books which explicitly deals with the\n                                postdigital, Robert Pepperell and Michael Punt's The Postdigital Membrane:\n                                Imagination, Technology and Desire (Citation 2000), introduces another useful\n                                definition.For Pepperell and Punt, 'the term Postdigital is intended to\n                                acknowledge the current state of technology while rejecting the conceptual shift implied\n                                in the \"digital ..."
  },
  {
    "count": 3,
    "title": "Postdigital | SpringerLink",
    "links": "https://link.springer.com/referenceworkentry/10.1007/978-3-031-35469-4_23-1",
    "snippet": "Jul 15,\n                                2023The postdigital is a vernacular, aesthetic, theoretical,\n                                scientific, and political concept, a practice, a political project, and much more. Over\n                                time, the arts, humanities, and social sciences have developed their distinct\n                                understandings of the postdigital."
  },
  {
    "count": 4,
    "title": "What Does the 'Postdigital' Mean for\n                                Education? Three Critical ...",
    "links": "https://link.springer.com/article/10.1007/s42438-019-00045-y",
    "snippet": "This article explores what the term\n                                'postdigital' might mean for education and society, and how it challenges the\n                                assumptions and implications of the digital. It discusses three perspectives on the\n                                digital: economic, policy, and material, and their implications for educational research\n                                and practice."
  },
  {
    "count": 5,
    "title": "Postdigital: A Term That Sucks but Is\n                                Useful - Springer",
    "links": "https://link.springer.com/article/10.1007/s42438-021-00225-9",
    "snippet": "Florian Cramer, a professor of media design and a\n                                scholar of postdigitality, discusses the concept of postdigital magic, the role\n                                of DIY practices, and the challenges of cultural management in a digital world. He also\n                                reflects on his own work and collaborations in the fields of literature, art, and\n                                technology."
  },
  {
    "count": 6,
    "title": "Perspectives on the postdigital:\n                                Beyond rhetorics of progress and ...",
    "links": "https://journals.sagepub.com/doi/10.1177/1354856514567827",
    "snippet": "The term postdigital has in recent years been\n                                applied across a broad range of disciplines, often with contradictory meanings. This\n                                article seeks to map the various definitions, deployments and appropriations of the term\n                                alongside undertaking a consideration of the underlying issues that the\n                                postdigital is argued to gesture towards. These issues ..."
  },
  {
    "count": 7,
    "title": "Postdigital Research: Genealogies,\n                                Challenges, and Future Perspectives ...",
    "links": "https://www.ncbi.nlm.nih.gov/pmc/articles/PMC8959268/",
    "snippet": "Postdigital research may not even mention the\n                                word postdigital, and research articles using the word postdigital may\n                                misinterpret its philosophy. This makes tasks such as editing and reviewing messy;\n                                despite our wariness of definitions, this mess cannot be cleared up without some\n                                conceptual clarity."
  },
  {
    "count": 8,
    "title": "(PDF) The postdigital turn:\n                                Philosophy, education, research",
    "links": "https://www.researchgate.net/publication/357433154_The_postdigital_turn_Philosophy_education_research",
    "snippet": "The ﬁrst theme is. the great convergence of various\n                                lower-level techno-scienti ﬁc convergences, such as analogue-. digital, physics\n                                -biology, and biology-information, which results in ..."
  },
  {
    "count": 9,
    "title": "What Does the 'Postdigital' Mean for\n                                Education? Three Critical ...",
    "links": "https://www.researchgate.net/publication/333321895_What_Does_the_'Postdigital'_Mean_for_Education_Three_Critical_Perspectives_on_the_Digital_with_Implications_for_Educational_Research_and_Practice",
    "snippet": "This paper examines what the term 'postdigital'\n                                might mean for education through the discussion of human-technology relationships. It\n                                begins with a summary of two general interpretations of ..."
  },
  {
    "count": 10,
    "title": "Full article: Postdigital Marxism and\n                                education - Taylor & Francis Online",
    "links": "https://www.tandfonline.com/doi/full/10.1080/00131857.2021.1930530",
    "snippet": "Yet postdigital theory has Marxism in its very\n                                foundations, making postdigital science and education a rupture, continuation,\n                                and reimagination of Marx's theories in and for the twenty-first century. References.\n                                Althusser, L. (1968/2009). 14-75. From Capital to Marx's philosophy. In L. Althusser\n                                & É."
  },
  {
    "count": 11,
    "title": "Postdigital Living in the Age of\n                                Covid-19: Unsettling What We See as ...",
    "links": "https://www.ncbi.nlm.nih.gov/pmc/articles/PMC7344032/",
    "snippet": "Postdigital Living and Its Inequalities. Petar\n                                Jandrić (PJ): In 2013 you argued for a need for developing global perspectives on\n                                technology and education. Following 'Colin Hay's distinction between the notion of\n                                globalisation as discourse and globalisation as process (see Hay and Rosamond 2002)'\n                                (Selwyn 2013: 8), you asserted that most academic discussions in the field, including\n                                yours ..."
  },
  {
    "count": 12,
    "title": "Postdigital Ecopedagogies:\n                                Genealogies, Contradictions, and Possible ...",
    "links": "https://www.ncbi.nlm.nih.gov/pmc/articles/PMC7749395/",
    "snippet": "The postdigital is both a rupture in our\n                                existing theories and their continuation.' (Jandrić et al. 2018: 895). Thinking the\n                                postdigital as an ecosystem means that they—like all ecosystems—are not stagnant\n                                or fixed but living, breathing, expanding, and fluid. They are both conditions and\n                                questions of our non-chronological present."
  },
  {
    "count": 13,
    "title": "Postdigital Research: Genealogies,\n                                Challenges, and Future ... - Springer",
    "links": "https://link.springer.com/article/10.1007/s42438-022-00306-3",
    "snippet": "Postdigital research may not even mention the\n                                word postdigital, and research articles using the word postdigital may\n                                misinterpret its philosophy. This makes tasks such as editing and reviewing messy;\n                                despite our wariness of definitions, this mess cannot be cleared up without some\n                                conceptual clarity."
  },
  {
    "count": 14,
    "title": "Postdigital ethnography in applied\n                                linguistics: Beyond the online and ...",
    "links": "https://www.sciencedirect.com/science/article/pii/S277276612400017X",
    "snippet": "Postdigital ethnography is well equipped to\n                                study these spaces and learning processes. We illustrate how classroom discourse and\n                                relations are expanded from two studies conducted by Suresh—i.e., the first on the role\n                                of safe houses, and the second on the ways material resources in the learning ecology\n                                co-construct learning. ..."
  },
  {
    "count": 15,
    "title": "The post-digital labyrinth.\n                                Understanding post-digital diversity ...",
    "links": "https://journals.sagepub.com/doi/10.1177/13548565221077587",
    "snippet": "Coined in 1998, the term post-digital has been\n                                used and discussed in several heterogenous disciplines and debates, to the point that it\n                                has now ramified into diverse, confusing and overlapping definitions and purposes, which\n                                constitute what I have called the post-digital labyrinth.Considering the\n                                theoretical works on post-digitality published up until the mid-2010s, I propose five\n                                different ..."
  },
  {
    "count": 16,
    "title": "[PDF] What Is 'Post-digital'? |\n                                Semantic Scholar",
    "links": "https://www.semanticscholar.org/paper/What-Is-%E2%80%98Post-digital%E2%80%99-Cramer/a39101c005008474ae83e10fc48771e139ad9791",
    "snippet": "The Postdigital Constellation. The\n                                postdigital, as an aesthetic, gestures towards a relation produced by digital\n                                surfaces in a bewildering number of different places and contexts, and represents the\n                                current emerging asterism that is formed around notions of art, computation and design.\n                                Expand."
  },
  {
    "count": 17,
    "title": "The Postdigital-Biodigital Revolution\n                                - PMC - National Center for ...",
    "links": "https://www.ncbi.nlm.nih.gov/pmc/articles/PMC9483348/",
    "snippet": "The Postdigital-Biodigital Revolution. AM:\n                                Petar, you co-edited both books that we are discussing today. Please outline the main\n                                sources of inspiration for these books; how did they emerge? PJ: I was trained as a\n                                physicist, and I never gave much thought to biology. Yet in early 2020, when the\n                                Covid-19 pandemic started, I instinctively reacted by inviting the Postdigital\n                                Science and Education ..."
  },
  {
    "count": 18,
    "title": "Postdigital Learning for a Changing\n                                Higher Education",
    "links": "https://link.springer.com/article/10.1007/s42438-022-00307-2",
    "snippet": "May 2,\n                                2022Learning in the liminality of the postdigital can disrupt\n                                identities and sense of self-direction, which can lead to feelings of insecurity,\n                                threat, and epistemological, conceptual, and ontological 'lostness'. In the context of\n                                academic life, for instance, many academics verbalize stories about liminal identities\n                                in the context of the ..."
  },
  {
    "count": 19,
    "title": "Full article: Postdigital-biodigital:\n                                An emerging configuration",
    "links": "https://www.tandfonline.com/doi/full/10.1080/00131857.2020.1867108",
    "snippet": "Abstract. This dialogue (trilogue) is an attempt to\n                                critically discuss the technoscientific convergence that is taking place with biodigital\n                                technologies in the postdigital condition. In this discussion, Sarah Hayes, Petar\n                                Jandrić and Michael A. Peters examine the nature of the convergences, their applications\n                                for bioeconomic sustainability ..."
  },
  {
    "count": 20,
    "title": "Home | Postdigital Science and\n                                Education - Springer",
    "links": "https://link.springer.com/journal/42438",
    "snippet": "Postdigital Science and Education is the\n                                pioneering academic journal focusing on postdigital themes and research\n                                approaches in education. Links various sub-disciplines of scholarship within education,\n                                social sciences, and humanities across digital technologies and postdigital being\n                                and knowledge topics. Focuses equally on theory and practice ..."
  },
  {
    "count": 21,
    "title": "The Postdigital Learning Spaces of\n                                Higher Education - PMC",
    "links": "https://www.ncbi.nlm.nih.gov/pmc/articles/PMC8632727/",
    "snippet": "In a postdigital world where social media has\n                                become woven through the everyday practices and surroundings of students, it seems\n                                likely that the kind of method described by Wardak et al. will become commonplace as a\n                                way of opening-up the complexity of contemporary learning spaces and practices. The work\n                                introduced above is consistent with the ..."
  },
  {
    "count": 22,
    "title": "Social Media Influencing in the City\n                                of Likes: Dubai and the ... - IMDb",
    "links": "https://www.imdb.com/title/tt32194041/",
    "snippet": "Apr 10,\n                                2024IMDb is the world's most popular and authoritative source for movie, TV\n                                and celebrity content. Find ratings and reviews for the newest movie and TV shows. Get\n                                personalized recommendations, and learn where to watch across hundreds of streaming\n                                providers."
  },
  {
    "count": 23,
    "title": "What Is 'Post-digital'? |\n                                SpringerLink",
    "links": "https://link.springer.com/chapter/10.1057/9781137437204_2",
    "snippet": "Abstract. In January 2013, a picture of a young man\n                                typing on a mechanical typewriter while sitting on a park bench went 'viral' on the\n                                popular website Reddit. The image was presented in the typical style of an 'image macro'\n                                or 'imageboard meme' (Klok 2010, 16-19), with a sarcastic caption in bold white Impact\n                                typeface that read ..."
  },
  {
    "count": 24,
    "title": "Postdigital: A Term That Sucks but Is\n                                Useful - PMC",
    "links": "https://www.ncbi.nlm.nih.gov/pmc/articles/PMC8010781/",
    "snippet": "Postdigital Magic. Petar Jandrić (PJ): In Words\n                                Made Flesh: Code, Culture, Imagination, you wrote: 'Material creation from the word is\n                                an idea central to magic in all cultures; it is precisely what magic spells\n                                perform.Magic therefore is, at its core, a technology, serving the rational end of\n                                achieving an effect, and being judged by its efficacy.' (Cramer 2005: 14-15) Moving to\n                                the case ..."
  },
  {
    "count": 25,
    "title": "(PDF) What Is 'Post-Digital'? -\n                                ResearchGate",
    "links": "https://www.researchgate.net/publication/336885121_What_Is_'Post-Digital'",
    "snippet": "from this reality. More pragmatically, the term\n                                'post-. digital' can be used to describe either a. contemporary\n                                disenchantment with digital. information systems and media gadgets, or a period\n                                ..."
  },
  {
    "count": 26,
    "title": "post-digital culture",
    "links": "http://post-digital-culture.org/",
    "snippet": "Welcome to Post-Digital CultureA Short\n                                Introduction. by Daniel Kulle, Cornelia Lund, Oliver Schmidt, David Ziegenhagen. When we\n                                started discussing the concept of the post-digital in late 2012, the term was\n                                already used in different areas: in music, of course, but also in an art and design\n                                context. There was, however, no wide-spread academic ..."
  },
  {
    "count": 27,
    "title": "The postdigital turn: Philosophy,\n                                education, research",
    "links": "https://journals.sagepub.com/doi/abs/10.1177/14782103211062713",
    "snippet": "The third theme is postdigital research, which\n                                is reconfigured by the great convergence towards a closer collaboration between\n                                traditional scientific fields and disciplines. We briefly outline four such\n                                reconfigurations (multidisciplinary, interdisciplinarity, transdisciplinarity, and\n                                antidisciplinarity) and their implications. ..."
  },
  {
    "count": 28,
    "title": "PDF\n                                What Does the Postdigital Mean for Education? Three Critical ...",
    "links": "https://link.springer.com/content/pdf/10.1007/s42438-019-00045-y.pdf",
    "snippet": "The tendency in postdigital theorising has been\n                                to suggest two different general positions. The first, and the more straightforward\n                                interpretation, is to understand the 'post' as meaning simply 'posterior to', suggesting\n                                a different stage in the perception and use of technology. The postdigital in\n                                this sense is often, as Fuller suggests,"
  },
  {
    "count": 29,
    "title": "PDF",
    "links": "https://postdigitalarchitecture.com/",
    "snippet": "Illustrator Pattern Library - Huge Architectural\n                                Materials Multi-Pack (17 Sets in 1) From $69.90. Hand Drawn Characters Huge Multi-Pack 3\n                                From $49.90. PNG Post Digital Collage Characters Multi-Pack (100+) From\n                                $39.90. CAD, Vector All You Need for a Market Design in Top and Front View Multi-Pack\n                                From $29.90. CAD, Vector Isometric Multi-Pack 3 ..."
  },
  {
    "count": 30,
    "title": "PDA | Post Digital\n                                Architecture",
    "links": "https://link.springer.com/referencework/10.1007/978-3-031-35469-4",
    "snippet": "About this book. Encyclopedia of Postdigital\n                                Science and Education brings together the voluminous knowledge on scholarly research and\n                                learning in our postdigital condition. Since its first public appearance in 2000,\n                                the concept of the postdigital has entered mainstream in research fields from\n                                philosophy through arts to education."
  },
  {
    "count": 31,
    "title": "Encyclopedia of Postdigital Science\n                                and Education",
    "links": "https://link.springer.com/article/10.1365/s40702-021-00737-9",
    "snippet": "The postdigital world, in which humans,\n                                technology and space are interwoven, requires methods, tools and practices that support\n                                creativity, participation and multiple voices. Taking an in-depth look at one example,\n                                this paper identifies a future-ready mode of designing collaborative work: the PIP\n                                (postdigital, interactive, participatory ..."
  },
  {
    "count": 32,
    "title": "Postdigital. Interaktiv. Partizipativ.\n                                Mit der PIP-Formel in die Post ...",
    "links": "https://link.springer.com/article/10.1007/s42438-023-00391-y",
    "snippet": "Feb 17,\n                                2023The launch of Postdigital Science and Education helped generate\n                                a burst of new scholarship about this emerging turn in educational research and theory.\n                                Yet, what it means to do postdigital research remains obscure to many. Ongoing\n                                debates around definitions, combined with the complexity of analysing digital activity\n                                within rich contexts that are also social, material, political, economic, and\n                                ..."
  },
  {
    "count": 33,
    "title": "Mapping and Tracing the Postdigital:\n                                Approaches and Parameters of ...",
    "links": "https://www.tandfonline.com/doi/full/10.1080/00393541.2023.2273706",
    "snippet": "Nov 28,\n                                2023In this manner, they are postdigital, which is a term that\n                                refers to the ubiquitous nature of digital media in addition to how these media impact\n                                and influence all media that came before (see Tavin et al., 2021 ). Art educators\n                                currently have the opportunity to address the impact of AI-generated art as it relates\n                                to a digital visual culture."
  },
  {
    "count": 34,
    "title": "Full article: Digital and Postdigital\n                                Media in Art Education",
    "links": "https://www.slow-media.net/das-postdigitale-zeitalter",
    "snippet": "Postdigital heißt gerade nicht, dass digitale\n                                Technologien und digitale Medien heute keine Rolle mehr spielen. Genau das Gegenteil ist\n                                der Fall: Die tiefe und nachhaltige Durchsetzung der Digitalisierung ist eine notwendige\n                                Bedingung für den postdigitalen Zustand."
  },
  {
    "count": 35,
    "title": "Das postdigitale Zeitalter - slow\n                                media",
    "links": "https://link.springer.com/referenceworkentry/10.1007/978-3-031-35469-4_21-1",
    "snippet": "Jul 18,\n                                2023The postdigital is an ideological cover justifying the present\n                                order of things, similar to how \"postracism,\" by positioning racism as something in the\n                                past, provides cover for racism. Postdigital times are questions of struggles -\n                                political and otherwise - over our values, desires, and being together in the\n                                world."
  },
  {
    "count": 36,
    "title": "Postdigital Time |\n                                SpringerLink",
    "links": "https://link.springer.com/article/10.1007/s42438-018-0011-x",
    "snippet": "This article is a multi-authored experimental\n                                postdigital dialogue about postdigital dialogue. Fourteen authors were\n                                invited to produce their sections, followed by two author-reviewers who examined the\n                                article as a whole. Authors were invited to reflect on Petar Jandric's book Learning in\n                                the age of digital reason (2017) or to produce completely new insights. The article also\n                                contains a ..."
  },
  {
    "count": 37,
    "title": "Postdigital Dialogue | Postdigital\n                                Science and Education - Springer",
    "links": "https://www.lab404.com/142/cramer.pdf",
    "snippet": "The simplest denition of 'post-digital'\n                                describes a media aesthetics which opposes such digital high-tech and high-delity\n                                cleanness. The term was coined in 2000 by the musician Kim Cascone, in the context of\n                                glitch aesthetics in contemporary electronic music (Cascone, 12)."
  },
  {
    "count": 38,
    "title": "PDF\n                                Florian Cramer WHAT IS 'POST-DIGITAL'? - lab404",
    "links": "https://thelogisticsworld.com/tecnologia/5-tendencias-tecnologicas-en-la-era-postdigital/",
    "snippet": "5 tendencias tecnológicas emergentes. El Technology\n                                Vision 2019, identifica cinco tendencias tecnológicas emergentes que las empresas deben\n                                abordar para tener éxito en el panorama actual de rápida evolución: 1. DARQ Power:\n                                Entendiendo el ADN de DARQ. Las tecnologías DARQ, acrónimo en inglés para Tecnologías\n                                Distribuidas, Inteligencia ..."
  },
  {
    "count": 39,
    "title": "PDF",
    "links": "https://postdigitalcultures.org/",
    "snippet": "POSTDIGITAL INTIMACIES. Postdigital\n                                Intimacies for Online Safety. POSTDIGITAL INTIMACIES. Preliminary Policy\n                                Stakeholder Engagement for Emergent FemTech and Women's Digital Health.\n                                POSTDIGITAL INTIMACIES. ACES. LUDIC DESIGN. CreativeCulture 4.0. LUDIC DESIGN.\n                                Escape Racism. LUDIC DESIGN. CULT_RISK. LUDIC DESIGN. E-DigiLit."
  },
  {
    "count": 40,
    "title": "5 tendencias tecnológicas en la era\n                                postdigital",
    "links": "https://link.springer.com/referenceworkentry/10.1007/978-3-031-35469-4_37-1",
    "snippet": "Sep 24,\n                                2023Abstract. Postdigital activism is the idea that organizing,\n                                mobilizing, petitioning, protesting, and other forms of social and political activism\n                                can be effectuated through technological means that bridge between analog and digital\n                                media. Postdigital activism may involve artistic performance, computer hacking,\n                                slacktivism, publishing at the ..."
  },
  {
    "count": 41,
    "title": "Centre for Postdigital Cultures - a\n                                research centre at Coventry University",
    "links": "https://link.springer.com/article/10.1007/s11217-020-09711-2",
    "snippet": "We now live in a postdigital world \"where\n                                digital technology and media is [no longer] separate, virtual, 'other' to a 'natural'\n                                human and social life\" (Jandrić et al. 2018: 893).The postdigital approach does\n                                not seek \"technical innovation or improvement but considers digitisation as something\n                                that has already happened and thus might be further reconfigured\" (Cramer\n                                2013)."
  },
  {
    "count": 42,
    "title": "Postdigital Activism |\n                                SpringerLink",
    "links": "https://link.springer.com/chapter/10.1007/978-3-031-38052-5_1",
    "snippet": "Sep 29,\n                                2023Abstract. In their introduction, the editors explore the complexities\n                                and contexts around the ambiguous term \"postdigital,\" particularly the \"messy\"\n                                entanglements of the digital and analog, material and symbolic, technology and sociality\n                                that it encompasses. The editors also introduce the concept of media constellations as\n                                the ..."
  },
  {
    "count": 43,
    "title": "Postdigital We-Learn | Studies in\n                                Philosophy and Education - Springer",
    "links": "https://www.archpaper.com/2021/04/postdigital-time-to-reevaluate-the-relationship/",
    "snippet": "The term was first popularized by the British architect\n                                Sam Jacob, who considered postdigital drawing (often taking the form of collage)\n                                to be a meaningful critique of the digital positivism that ..."
  },
  {
    "count": 44,
    "title": "Postdigital Participation in\n                                Education: An Introduction",
    "links": "https://link.springer.com/chapter/10.1007/978-3-030-65592-1_2",
    "snippet": "Postdigital humans may exist in various\n                                carbon-based and non-carbon-based forms, and the exact demarcation between\n                                postdigital humans and postdigital non-humans is a constantly moving\n                                target. However, postdigital theory is more concerned with in-between\n                                configurations and bio-machine entanglements from which postdigital humans can be\n                                made."
  },
  {
    "count": 45,
    "title": "The postdigital has made the things\n                                around us into friends and enemies ...",
    "links": "https://www.sciencedirect.com/science/article/pii/S0883035523000460",
    "snippet": "Jan 1,\n                                2023Postdigital theory is all about the dissolving of misleading\n                                dichotomies - between digital and analogue, online and offline, physics and biology (see\n                                Jandrić et al., 2018). This does not imply that, for instance, the digital and the\n                                analogue are the same - such a claim would be absurd! However, this does imply that the\n                                digital and the ..."
  },
  {
    "count": 46,
    "title": "Postdigital Humans: Taking Evolution\n                                in Own Hands",
    "links": "https://link.springer.com/article/10.1007/s42438-018-0021-8",
    "snippet": "Postdigital Education? It is possible that terms\n                                like \"digital education\", \"e-learning\", \"technology-enhanced learning\", etc. have value\n                                in highlighting points of difference from \"traditional\" or \"face-to-face\" teaching and\n                                learning. Under the right conditions, a naïve distinction between digital and\n                                traditional education ..."
  },
  {
    "count": 47,
    "title": "Postdigital human capital -\n                                ScienceDirect",
    "links": "https://www.postdigital.tech/manifesto/",
    "snippet": "As post-digitalists, we nurture emerging technology and\n                                make it our mission to guide its path towards the humane. 1. We live in an era of\n                                man-made cultural catastrophe. Novel technology changes our environment faster than\n                                modern culture can adapt to it. We are forced to live in this new environment while not\n                                having enough time to reflect on ..."
  },
  {
    "count": 48,
    "title": "Postdigital Education in Design and\n                                Practice | Postdigital ... - Springer",
    "links": "https://www.researchgate.net/publication/374285890_Postdigital_Participation_in_Education_A_Postscript",
    "snippet": "Sep 29,\n                                2023postdigital Bildung as a variant of education in the digital\n                                condition that. embraces its messiness and sociopolitical, cultural, and economic\n                                entan-. glements by exploring how to overcome ..."
  },
  {
    "count": 49,
    "title": "Post-Digitalism: A\n                                Manifesto",
    "links": "https://link.springer.com/book/10.1007/978-3-031-35411-3",
    "snippet": "About this book. This book delves into the various\n                                methods of constructing postdigital research, with a particular focus on the\n                                postdigital dynamic of inclusion and exclusion, as well as the interplay between\n                                method and emancipation. By answering three fundamental questions - the relationship\n                                between postdigital theory and research practice ..."
  },
  {
    "count": 50,
    "title": "(PDF) Postdigital Participation in\n                                Education: A Postscript - ResearchGate",
    "links": "https://link.springer.com/article/10.1007/s42438-023-00443-3",
    "snippet": "Dec 2,\n                                2023During its long history, citizen science has undergone significant\n                                transformations. The latest transformation, postdigital citizen science, is a\n                                rupture and continuation (Jandrić et al. 2018: 895) of earlier\n                                practices.Postdigital transformations are everywhere, as the postdigital\n                                age touches upon almost every aspect of contemporary life."
  },
  {
    "count": 51,
    "title": "Constructing Postdigital Research:\n                                Method and Emancipation - Springer",
    "links": "https://journals.sagepub.com/doi/full/10.1177/20563051211010169",
    "snippet": "The postdigital is defined as the merging\n                                offline/online sociopolitical practices or the \"postdigital condition\" (Jandrić\n                                et al., 2018).The prefix of \"post\" in postdigitalism, like other \"posts,\" including\n                                postfeminism, postmodernity, poststructuralism, postcolonial, and so on, offers critique\n                                to prior epistemological paradigms."
  },
  {
    "count": 52,
    "title": "Postdigital Citizen Science: Mapping\n                                the Field - Springer",
    "links": "https://link.springer.com/book/10.1057/9781137437204",
    "snippet": "However, the postdigital landscape is not the\n                                techno-utopian dream of Silicon Valley, but a vibrant, messy, conflicted and confusing\n                                arena of debate and uncertainty which challenges every aspect of our cultural formation,\n                                including our own humanity. This groundbreaking collection of essays is a\n                                thought-provoking guide to a new and contested ..."
  },
  {
    "count": 53,
    "title": "#reimagining Arab Women's Social Media\n                                Empowerment and the Postdigital ...",
    "links": "https://www.researchgate.net/publication/374153352_Postdigital",
    "snippet": "Sep 24,\n                                2023Postdigital humans may exist in various carbon-based and\n                                non-carbon-based forms, and the exact demarcation between postdigital humans and\n                                postdigital non-humans is a constantly moving target ..."
  },
  {
    "count": 54,
    "title": "Postdigital Aesthetics: Art,\n                                Computation And Design - Springer",
    "links": "https://link.springer.com/referenceworkentry/10.1007/978-3-031-35469-4_11-1",
    "snippet": "Nov 14,\n                                2023Postdigital (mis)education is inseparable from\n                                socio-environmental (in)justice and planetary (un)sustainability of Nature beyond\n                                anthropocentric perspectives. Therefore, ecopedagogies are intrinsic to\n                                postdigital work. Ecopedagogy centers teaching for deepened and widened\n                                understandings of how and why; and the politics behind human acts that ...\n                          "
  },
  {
    "count": 55,
    "title": "(PDF) Postdigital -\n                                ResearchGate",
    "links": "https://link.springer.com/article/10.1007/s42438-022-00338-9",
    "snippet": "Sep 16,\n                                2022He is the Editor-in-Chief of Postdigital Science and Education\n                                journal and book series. 1 His recent books include Postdigital Dialogues on\n                                Critical Pedagogy, Liberation Theology and Information Technology (McLaren and Jandrić\n                                2020 ), Knowledge Socialism. The Rise of Peer Production: Collegiality, Collaboration,\n                                and Collective Intelligence ..."
  },
  {
    "count": 56,
    "title": "Postdigital Freirean Ecopedagogies |\n                                SpringerLink",
    "links": "https://link.springer.com/article/10.1007/s42438-023-00414-8",
    "snippet": "Aug 18,\n                                2023Research in this journal has argued the importance of developing new\n                                understandings of literacy and education in the face of rapid and widespread\n                                (post)digital reconfigurations in how we learn, communicate, and even exist as\n                                embodied ecological beings. Alongside and predating interest in the postdigital,\n                                multimodality research developed significant theory and methods for articulating the\n                                ..."
  },
  {
    "count": 57,
    "title": "The Postdigital-Biodigital Revolution\n                                | Postdigital Science ... - Springer",
    "links": "https://link.springer.com/article/10.1007/s42438-020-00212-6",
    "snippet": "Postdigital Science and Education - The issue,\n                                we would suggest, becomes that of 'presence' and in what ways there might be a place for\n                                a benign presence, energy or power that functions in the background and influences the\n                                passage of existence, if at all, largely through human cooperation with this form of\n                                divinity."
  },
  {
    "count": 58,
    "title": "The Challenge of Postdigital Literacy:\n                                Extending Multimodality and ...",
    "links": "https://www.archpaper.com/2018/05/postdigital-for-the-record/",
    "snippet": "The most common misconception of 'postdigital'\n                                is that it signifies 'beyond,' 'anti-,' or simply 'not' digital. Nothing could be\n                                further from the truth, says Adam Fure. The ..."
  },
  {
    "count": 59,
    "title": "Postdigital Theologies: Technology,\n                                Belief and Practice",
    "links": "https://link.springer.com/article/10.1007/s42438-022-00354-9",
    "snippet": "Nov 19,\n                                2022What is significant about the postdigital is that it is\n                                admittedly an open and contested designation that does not claim to identify any\n                                groundbreaking specific—let alone encompassing or essential—element in the time, space,\n                                or social landscape not of the 'postdigital' or any other era but of our\n                                conjuncture. Whereas an era denotes a linear, deterministic, and universal passing of\n                                ..."
  },
  {
    "count": 60,
    "title": "What does it really mean to be\n                                \"post-digital\" in architecture?",
    "links": "https://link.springer.com/article/10.1007/s42438-022-00345-w",
    "snippet": "Oct 22,\n                                2022In early issues, most notably Postdigital Science and Education\n                                1 (1) and 1 (2), authors extensively debated the concept and its potentials. Along the\n                                way, the community had to make many 'small' but important decisions; for instance, it\n                                was decided to consistently use the spelling 'postdigital' (see Cormier et al.\n                                2019 for details)."
  },
  {
    "count": 61,
    "title": "Postdigital Soundscapes: Sonics,\n                                Pedagogies, Technologies",
    "links": "https://www.instagram.com/postdigitalarchitecture/",
    "snippet": "There's an issue and the page could not be loaded.\n                                Reload page. 64K Followers, 1,851 Following, 1,012 Posts - See Instagram photos and\n                                videos from Post Digital Architecture\n                                (@postdigitalarchitecture)"
  },
  {
    "count": 62,
    "title": "History of the Postdigital: Invitation\n                                for Feedback | Postdigital ...",
    "links": "https://link.springer.com/article/10.1007/s42438-021-00249-1",
    "snippet": "The diversity of reactions to the implementation of ERT\n                                was the inspiration for our first Postdigital Science and Education paper\n                                (Rapanta et al. 2020), in which we sought to distil and share some expert advice for\n                                campus-based university teachers to adapt to online teaching and learning. Now, 1 year\n                                later, there is a second round of mixed ..."
  },
  {
    "count": 63,
    "title": "Post Digital Architecture\n                                (@postdigitalarchitecture) - Instagram",
    "links": "https://www.springer.com/series/16439",
    "snippet": "The book series covers a wide range of topics within\n                                postdigital science and education, including learning and data analytics, digital\n                                humanities, (digital) learning, teaching and assessment, educational technology and\n                                philosophy of education. We no longer live in a world where digital technology and media\n                                are separate, virtual, 'other' to a ..."
  },
  {
    "count": 64,
    "title": "Balancing Technology, Pedagogy and the\n                                New Normal: Post ... - Springer",
    "links": "https://link.springer.com/article/10.1007/s42438-023-00427-3",
    "snippet": "Sep 19,\n                                2023Blommaert argued that postdigital environments are 'new\n                                sociolinguistic environments' and discourse analysis must pay attention to the new\n                                sociolinguistic conditions affecting contemporary forms of communication.Specifically\n                                looking at propaganda models, Blommaert argued that people are now targeted with\n                                political messages as members of very particular niche groups."
  },
  {
    "count": 65,
    "title": "Postdigital Science and Education |\n                                Book series home - Springer",
    "links": "https://link.springer.com/chapter/10.1007/978-3-031-35411-3_1",
    "snippet": "Aug 2,\n                                2023Postdigital research has a heritage (Jandrić et al. 2022) which\n                                includes its emergence from the arts, humanities, and creative subjects, which are\n                                currently under attack (Hall 2022).Through postdigital research there is an\n                                ongoing interchange between what is to come, as well as what has gone\n                                before."
  },
  {
    "count": 66,
    "title": "Postdigital Possibilities in Applied\n                                Linguistics | Postdigital Science ...",
    "links": "https://link.springer.com/referenceworkentry/10.1007/978-3-031-35469-4_27-1",
    "snippet": "Nov 14,\n                                2023Abstract. This entry focuses on postdigital academic writing,\n                                providing a socio-historical exploration of writing in higher education and its meaning\n                                for advancing collective intelligences. It shows that postdigital writing cannot\n                                be divorced from its context and hence it should be seen as a tool for learning in a\n                                human and more-than-human ..."
  },
  {
    "count": 67,
    "title": "Positionality in Postdigital Research:\n                                The Power to Effect Change",
    "links": "https://aprja.net/article/view/116068",
    "snippet": "This article discusses the postdigital as a term\n                                that can be used to describe either a contemporary disenchantment with digital\n                                information systems and media gadgets, or a period in which our fascination with these\n                                systems and gadgets has become historical. After Edward Snowden's disclosures of the\n                                NSA's all-pervasive digital surveillance systems, this disenchantment has quickly grown\n                                from ..."
  },
  {
    "count": 68,
    "title": "Postdigital Academic Writing |\n                                SpringerLink",
    "links": "https://link.springer.com/referenceworkentry/10.1007/978-3-031-35469-4_53-1",
    "snippet": "Nov 15,\n                                2023Postdigital ethnography also refers to a critical perspective\n                                within ethnographic research on digital technology, digital culture, and digital\n                                education. Postdigital ethnography ties cultural theory and/or theories of the\n                                (post)digital down to glitchy situated lived experiences and opens up accounts of\n                                lived experience to theoretical exploration."
  },
  {
    "count": 69,
    "title": "What Is 'Post-Digital'? | A\n                                Peer-Reviewed Journal About - APRJA",
    "links": "https://link.springer.com/chapter/10.1007/978-3-030-65592-1_1",
    "snippet": "In the 2020s, postdigital humans now refer more\n                                often to the ways in which humans are seen in relationship, mutually shaping one\n                                another, whilst recognizing both what is new as well as what is already embedded in our\n                                cultures, institutions, political systems, and relationships. The development and use of\n                                postdigital humans is occurring rapidly ..."
  },
  {
    "count": 70,
    "title": "Postdigital Ethnography |\n                                SpringerLink",
    "links": "https://link.springer.com/referenceworkentry/10.1007/978-3-031-35469-4_10-1",
    "snippet": "Oct 20,\n                                2023Postdigital is an adjective formed as a portmanteau of two\n                                ideas, based on 'digital' and modified by 'post.' The prefix 'post' signals that the\n                                condition it precedes, digital in this case, has become normal and ubiquitous (Peters et\n                                al. 2018).Such is the case with digital technology, which is now completely central to\n                                human communication in business, education, entertainment, etc ..."
  },
  {
    "count": 71,
    "title": "What Are Postdigital Humans? |\n                                SpringerLink",
    "links": "https://link.springer.com/article/10.1007/s42438-018-0017-4",
    "snippet": "The postdigital throws up new challenges and\n                                possibilities across all aspects of social life. We believe this opens up new avenues\n                                too, for considering ways that discourse (language-in-use) shapes how we experience the\n                                postdigital. In examining the work of the prefix 'post', we aim to contribute to\n                                the current postdigital dialogue. Our ..."
  },
  {
    "count": 72,
    "title": "Postdigital Ethnicity |\n                                SpringerLink",
    "links": "https://link.springer.com/referenceworkentry/10.1007/978-3-031-35469-4_52-1",
    "snippet": "Aug 2,\n                                2023Postdigital education encompasses considerations of technology,\n                                pedagogy, biology, politics, economics, social justice, and the environment (Jandrić et\n                                al. 2018).By considering connections between these elements, postdigital\n                                education aims to provide a more holistic and critical perspective on educational\n                                practices that goes beyond a narrow focus on digital tools and platforms.\n                          "
  },
  {
    "count": 73,
    "title": "Between the Post and the Com-Post:\n                                Examining the Postdigital 'Work' of ...",
    "links": "https://journals.sagepub.com/doi/full/10.1177/18369391231198910",
    "snippet": "Aug 23,\n                                2023The imbrication of AI in the lives of children and their adults\n                                underscores a core concept in what is known as the postdigital, a period of human\n                                history in which social practices are mediated by the digital and vice-versa .\n                                Essentially the process of mediation refers to the manner in which people create, design\n                                and use digital technologies ..."
  },
  {
    "count": 74,
    "title": "Postdigital Education |\n                                SpringerLink",
    "links": "https://link.springer.com/article/10.1007/s42438-023-00450-4",
    "snippet": "Jan 18,\n                                2024In 2023, Petar Jandrić, Alison MacKenzie, and Jeremy Knox published two\n                                edited books: Postdigital Research: Genealogies, Challenges, and Future\n                                Perspectives (Jandrić et al. 2023a) and Constructing Postdigital Research: Method\n                                and Emancipation (Jandrić et al. 2023b).The books were developed in response to the\n                                postdigital science and education community's need for examining its own research\n                                ..."
  },
  {
    "count": 75,
    "title": "Early childhood education and care,\n                                artificial intelligence and the ...",
    "links": "https://www.researchgate.net/publication/371810999_Educacion_y_comunicacion_para_la_Sociedad_Postdigital",
    "snippet": "Jun 24,\n                                2023Abstract. Educación y comunicación en una sociedad postdigital\n                                Investigación documental y análisis de perspectivas. El desarrollo vertiginoso de las\n                                tecnologías digitales de las últimas ..."
  },
  {
    "count": 76,
    "title": "Postdigital Research: Transforming\n                                Borders into Connections - Springer",
    "links": "https://link.springer.com/journal/42438/aims-and-scope",
    "snippet": "Postdigital Science and Education explores\n                                education and research in and for the postdigital age. Working at the\n                                intersections of technology, sociology, history, politics, philosophy, arts, media\n                                studies, critical pedagogy, and science-fiction, the journal welcomes contributions from\n                                wide range of disciplines and inter-, trans- and anti- disciplinary research\n                                methodologies."
  },
  {
    "count": 77,
    "title": "Educacion y comunicacion para la\n                                Sociedad Postdigital",
    "links": "https://link.springer.com/referenceworkentry/10.1007/978-3-031-35469-4_13-1",
    "snippet": "Sep 16,\n                                2023With technologies imbricated into all aspects of life, those who are\n                                'disconnected' or those who have strict access to digital resources can be profoundly\n                                affected in their participation in society and the economy (Zuboff 2019).Critical issues\n                                associated with the notion of postdigital learning spaces, therefore, include\n                                tensions and contradictions related to inequalities in access and ...\n                          "
  },
  {
    "count": 78,
    "title": "Aims and scope | Postdigital Science\n                                and Education - Springer",
    "links": "https://postdigital.astonphotonics.uk/",
    "snippet": "2nd year POST-DIGITAL workshop and Symposium\n                                \"Scaling up Systemsand Application Complexity in Analog Neuromorphic and Analog\n                                Computing\". The POST-DIGITAL team met in Groningen for 3 days (22-24 March 2022)\n                                of interesting presentations and inspiring discussions!"
  },
  {
    "count": 79,
    "title": "Postdigital Learning Spaces |\n                                SpringerLink",
    "links": "https://link.springer.com/article/10.1007/s42438-018-0027-2",
    "snippet": "The postdigital no longer opposes the virtual or\n                                cyber world to the world of face-to-face experience. The digital is integrated and\n                                imbricated with our everyday actions and interactions. This is the trend in education,\n                                where ambitious projects aimed at automation have given way to more modest attempts to\n                                integrate digital tools to conventional ..."
  },
  {
    "count": 80,
    "title": "Post-digital - Post-digital\n                                Etn",
    "links": "https://link.springer.com/article/10.1007/s40841-023-00305-3",
    "snippet": "Dec 14,\n                                2023This paper focuses on the challenges of living in a postdigital\n                                society and education's response to these challenges. The postdigital is\n                                understood as both a condition of society and as a theory to question established ways\n                                of being with digital technologies (Fawns et al., 2023).While others have made the leap\n                                to call for postdigital citizenship education (Rapanta, 2023), there is a need\n                                for ..."
  },
  {
    "count": 81,
    "title": "Postdigital or Predigital? |\n                                Postdigital Science and Education - Springer",
    "links": "https://www.academia.edu/44738383/Postdigital_ecopedagogies_Genealogies_contradictions_and_possible_futures",
    "snippet": "Postdigital Science and Education (2022)\n                                4:692-710 707 The contestations, lineages, debates, and directions charted in this\n                                article address some of the contemporary coordinates of our postdigital\n                                ecologies."
  },
  {
    "count": 82,
    "title": "Updating Digital Citizenship Education\n                                for a Postdigital Society",
    "links": "https://www.researchgate.net/publication/303429677_What_Is_'Post-Digital'",
    "snippet": "The postdigital is not 'ineffable' but rather\n                                only appears indefinable because of a prior and contestable refusal to analyse the\n                                digital, as it predicates the 'postdigital' of the plural ..."
  },
  {
    "count": 83,
    "title": "(PDF) Postdigital ecopedagogies:\n                                Genealogies, contradictions, and ...",
    "links": "https://link.springer.com/referenceworkentry/10.1007/978-3-031-35469-4_19-1",
    "snippet": "Sep 16,\n                                2023Postdigital speculation can been understood as a theoretical\n                                approach to resisting essentialism by attending to unexpected encounters and their\n                                meanings (Cellard 2022).Postdigital theory identifies binaries between digital/analog,\n                                human/non-human, technological/social, and challenges them by rejecting a clear\n                                distinction between digital, material, and social activity and contexts (Jandrić\n                                2023)."
  },
  {
    "count": 84,
    "title": "What Is 'Post-Digital'? | Request PDF\n                                - ResearchGate",
    "links": "https://link.springer.com/book/10.1007/978-3-031-09405-7",
    "snippet": "\"Postdigital Theologies: Technology, Belief, and\n                                Practice … is a thought-provoking resource that enables readers to grasp the key\n                                contours of the emerging discipline of postdigital theology and raises pertinent\n                                questions that will help to shape future discussion. … it is a commendable and highly\n                                valuable resource that should form part of the required reading for further work in this\n                                ..."
  },
  {
    "count": 85,
    "title": "Postdigital Speculation |\n                                SpringerLink",
    "links": "https://link.springer.com/chapter/10.1007/978-3-031-09405-7_1",
    "snippet": "Sep 2,\n                                2022Postdigital theologies seek to understand the condition of\n                                humanity in relation to God and the application of technology in relation to the\n                                practical outworkings of faith. Postdigital theologies are defined here as the\n                                interrelationship between humanity, technologies and theologies; it is an extension of\n                                the postdigital condition."
  },
  {
    "count": 86,
    "title": "Postdigital Theologies: Technology,\n                                Belief, and Practice - Springer",
    "links": "https://en.wiktionary.org/wiki/postdigital",
    "snippet": "(art) Of or relating to a movement that renounces\n                                digital technology in favour of a return to a human approach. 2020, Thomas Ramge,\n                                Postdigital: Using AI to Fight Coronavirus, Foster Wealth and Fuel Democracy‎[1],\n                                Murmann Publishers GmbH, →ISBN: The essayist Wolf Lotter understands\n                                «postdigital» not as the end of digitalization, but as the end of\n                                ..."
  },
  {
    "count": 87,
    "title": "Landscapes of Postdigital Theologies |\n                                SpringerLink",
    "links": "https://postdigitalarchitecture.com/collections/free",
    "snippet": "PNG Modern Wall Clocks (Free Now) On Sale from $0.00.\n                                Sale. Axonometric Isometric People Riding Vehicles Set (Free Now) From $0.00. Vector\n                                Swimming and Diving Top View Characters (FREE) From $0.00. Artcutout Scenes: Asian\n                                Surrealist Theater - Person With a Huge Dice Cubes (Free PNG) From $0.00.\n                          "
  },
  {
    "count": 88,
    "title": "postdigital - Wiktionary, the free\n                                dictionary",
    "links": "https://link.springer.com/referenceworkentry/10.1007/978-3-031-35469-4_8-1",
    "snippet": "Oct 20,\n                                2023The postdigital presents new angles of research and future\n                                discussion of postdigital epistemologies of ignorance. Feminist Origins of\n                                Epistemologies of Ignorance The study of ignorance emerged from feminist and liberatory\n                                scholarship such as that by Frye ( 1983 ), Alcoff ( 2007 ), Mills ( 1997 , 2007 ), Tuana\n                                ( 2004 , 2006 ), Tuana and Sullivan ..."
  },
  {
    "count": 89,
    "title": "Shop Free Sets at Post Digital\n                                Architecture | Post Digital Architecture",
    "links": "https://www.ncbi.nlm.nih.gov/pmc/articles/PMC7797699/",
    "snippet": "In this context, we need a postdigital critical\n                                philosophy that examines the nature of these convergences and especially the convergence\n                                of information and genomic science at the nanolevel, linking it to techno-science,\n                                techno-politics, and techno-nationalism (Peters and Besley 2019)."
  },
  {
    "count": 90,
    "title": "Postdigital Epistemology of Ignorance\n                                | SpringerLink",
    "links": "https://link.springer.com/article/10.1007/s42438-020-00121-8",
    "snippet": "The postdigital is a perspective that treats all\n                                technologies—whether digital or non−/pre-digital—as having equal standing (Jandrić\n                                2019). The postdigital perspective refuses to privilege one technology over\n                                another simply because of its digital format (Fawns 2019; Feenberg 2019). Non-digital or\n                                pre-digital technologies (e.g. group ..."
  },
  {
    "count": 91,
    "title": "Biodigital Philosophy, Technological\n                                Convergence, and Postdigital ...",
    "links": "https://link.springer.com/referenceworkentry/10.1007/978-3-031-35469-4_59-1",
    "snippet": "Feb 26,\n                                2024Postdigital democracy is open-ended: it is a continuous strive\n                                to critically consider evolving socio-technical landscapes and their implications for\n                                democracy and social life, focusing on digital technologies and the relations of which\n                                they are a part (cf. Fawns et al. 2023).To remain open to such evolving landscapes, this\n                                entry presents three possible steps toward an understanding of ..."
  },
  {
    "count": 92,
    "title": "Higher Education's Microcredentialing\n                                Craze: a Postdigital-Deweyan ...",
    "links": "https://www.ncbi.nlm.nih.gov/pmc/articles/PMC8346773/",
    "snippet": "Postdigital Humans persuaded me the answer is\n                                certainly the latter but to fully realise this promise postdigital thought\n                                requires a more theoretically systematic debate with posthumanism and transhumanism. In\n                                its absence, there's a risk postdigital engagements with the question of the\n                                human might slide into an avant-garde valorisation of the ..."
  },
  {
    "count": 93,
    "title": "Postdigital Democracy |\n                                SpringerLink",
    "links": "https://www.researchgate.net/publication/298520153_What_is_'post-digital'",
    "snippet": "Based on this sense of \"postdigital\", maybe it\n                                is more accurate to talk about a postdigitized era in education, where 1:1 transfers of\n                                analogue media to digital ones have \"happened\" with the help ..."
  },
  {
    "count": 94,
    "title": "Review of Maggi Savin-Baden (Ed.).\n                                (2021). Postdigital Humans ...",
    "links": "https://www.definitions.net/definition/postdigital",
    "snippet": "Definition of postdigital in the Definitions.net\n                                dictionary. Meaning of postdigital. What does postdigital mean?\n                                Information and translations of postdigital in the most comprehensive dictionary\n                                definitions resource on the web."
  },
  {
    "count": 95,
    "title": "What is 'post-digital'? -\n                                ResearchGate",
    "links": "https://link.springer.com/chapter/10.1007/978-3-031-35411-3_6",
    "snippet": "Aug 2,\n                                20234.1 The More-Than-Human Learning Spaces of Higher Education. Perhaps\n                                the clearest similarity between sociomateriality and postdigital thinking is in\n                                the shared assumption that educational spaces and practices cannot be adequately\n                                conceptualised or investigated by focusing solely on human bodies, interests, and\n                                actions."
  },
  {
    "count": 96,
    "title": "What does postdigital mean? -\n                                Definitions.net",
    "links": "https://www.ncbi.nlm.nih.gov/pmc/articles/PMC8122191/",
    "snippet": "Postdigital Practices. Influential in social\n                                science, practice theory has led to rich research findings. Again, however, in overview\n                                articles or introductory books, authors tend to identify elements or components that\n                                make up practices, sometimes dividing up 'social practices' from, e.g. 'discursive\n                                practices', which can lead to headaches over where, precisely, to draw the\n                                boundaries."
  },
  {
    "count": 97,
    "title": "Sociomateriality, Postdigital\n                                Thinking, and Learning Spaces ... - Springer",
    "links": "https://metropolismag.com/viewpoints/postdigital-drawing-aesthetic/",
    "snippet": "The post-digital drawing, on the other hand,\n                                renders space in a manner that variously recalls the paintings of Magritte, Sheeler,\n                                Hockney, Hopper, the large-format photographs of the New Topographics, even early\n                                OMA.Varied though these references may be, the post-digital drawing extracts from\n                                them an obsession with flatness and a virtuous refusal to engage with gloss, definition,\n                                fidelity, and ..."
  },
  {
    "count": 98,
    "title": "Theories of Postdigital Heterogeneity:\n                                Implications for Research on ...",
    "links": "https://link.springer.com/journal/42438/articles",
    "snippet": "Apr 16,\n                                2024Marko Teräs. Petar Jandrić. Editorials 19 April 2024. Correction:\n                                Review of Andreas Weich and Felicitas Macgilchrist (Eds.). (2023). Postdigital\n                                Participation in Education: How Contemporary Media Constellations Shape Participation.\n                                Sara Tolbert. Cheryl Brown. Correction 16 April 2024. Review of Greg William Misiaszek\n                                (2023)."
  },
  {
    "count": 99,
    "title": "Can't Be Bothered: The Chic\n                                Indifference of Post-Digital Drawing",
    "links": "https://academicinsightlab.org/blog/the-postdigital-era-and-postplagiarism-unpacking-complexities-in-hybrid-human-ai-collaboration",
    "snippet": "Aug 23,\n                                2023The term \"postdigital\" highlights a transformation in our\n                                understanding of the relationship between digital technology and human life (Jandrić\n                                & Ford, 2020; Jandrić & Hayes, 2020).At the Academic Insight Lab, we believe in\n                                the potential of this integration, particularly the use of collective intelligence that\n                                goes beyond individual minds to networks of people and tools."
  },
  {
    "count": 100,
    "title": "Articles | Postdigital Science and\n                                Education - Springer",
    "links": "https://link.springer.com/content/pdf/10.1057/9781137437204_2.pdf",
    "snippet": "Florian Cramer 15 Figure 2.1 Popular take-away\n                                restaurant in Rotterdam, echoing an episode from 19th-century Dutch colonial history,\n                                when members of the Chinese minority liv-ing in Java (Indonesia, then a Dutch colony)\n                                were brought as contract workers to"
  },
  {
    "count": 101,
    "title": "The Postdigital Era and\n                                Postplagiarism: Unpacking Complexities in ...",
    "links": "https://www.researchgate.net/publication/352802670_Post-digital_Post-internet_Propositions_for_Art_Education_in_the_Context_of_Digital_Cultures",
    "snippet": "Digital and postdigital art is marked by duality\n                                and ambivalence, which form a holistic unity in the aspects of object-subject relations\n                                and the social and non-human sections of reality. View Show ..."
  },
  {
    "count": 102,
    "title": "PDF\n                                What Is 'Post-digital'? - Springer",
    "links": "https://digitalcommons.chapman.edu/education_articles/271/",
    "snippet": "This article is a multi-authored experimental\n                                postdigital dialogue about postdigital dialogue. Fourteen authors were\n                                invited to produce their sections, followed by two author-reviewers who examined the\n                                article as a whole. Authors were invited to reflect on Petar Jandric's book Learning in\n                                the age of digital reason (2017) or to produce completely new insights.\n                          "
  },
  {
    "count": 103,
    "title": "PDF",
    "links": "https://link.springer.com/article/10.1007/s42438-023-00437-1",
    "snippet": "Oct 23,\n                                2023The on-yet-around approach impresses with its simplicity,\n                                comprehensibility, and applicability, and combines productively with Gourlay's\n                                interpretation of the postdigital as more-than-digital.While Fawns et al. strive\n                                for a reflexive inward movement, the next three chapters reach outward and attempt to\n                                establish meaningful cross-connections between the postdigital and other fields\n                                of research."
  },
  {
    "count": 104,
    "title": "Post-digital, Post-internet:\n                                Propositions for Art Education in the ...",
    "links": "https://link.springer.com/article/10.1007/s42438-023-00447-z",
    "snippet": "Jan 26,\n                                2024The contributions' multifaceted references to the postdigital\n                                and its diverse contextualization represent a contribution to an extended\n                                'postdigital dialogue' (Jandrić et al. 2019). This kind of dialogue also eludes\n                                binary definitions and is thus characterised by similar tensions as the dialogue between\n                                design and education."
  },
  {
    "count": 105,
    "title": "\"Postdigital Dialogue\" by Petar\n                                Jandrić, Thomas Ryberg et al.",
    "links": "https://www.scimagojr.com/journalsearch.php?q=21101075549&tip=sid",
    "snippet": "Scope Postdigital Science and Education explores\n                                education and research in and for the postdigital age. Working at the\n                                intersections of technology, sociology, history, politics, philosophy, arts, media\n                                studies, critical pedagogy, and science-fiction, the journal welcomes contributions from\n                                wide range of disciplines and inter-, trans- and anti- disciplinary research\n                                methodologies."
  },
  {
    "count": 106,
    "title": "Review of Petar Jandrić, Alison\n                                MacKenzie, and Jeremy Knox (Eds ...",
    "links": "https://ars.electronica.art/planetb/en/postdigital-natures-of-planet-b/",
    "snippet": "Postdigital Natures of Planet B questions this\n                                approach by exploring ambiguous overlaps and interfaces between the natural, the\n                                virtual, and the built environments. Through a series of reconfigurable architectural\n                                components, the project explores a variety of interfaces between the aforementioned\n                                domains. Paired with virtual overlays, various ..."
  },
  {
    "count": 107,
    "title": "Design Beyond Design Thinking:\n                                Designing Postdigital Futures when ...",
    "links": "https://link.springer.com/article/10.1007/s42438-021-00254-4",
    "snippet": "The mashrabiyya feminist postdigital framework\n                                develops unique inquiry into learners' subtle practices; the authors' self-reflexivity;\n                                and analysis of a (silent) email exchange and a Twitter avatar. Theorising suggests\n                                silences, invisibilities and disconnection are not necessarily a deficit but refractive\n                                responses enabling students and ..."
  },
  {
    "count": 108,
    "title": "Postdigital Science and Education -\n                                Scimago Journal & Country Rank",
    "links": "https://link.springer.com/article/10.1007/s42438-020-00141-4",
    "snippet": "Postdigital Science and Education - Much before\n                                the 'birth' of Lil Miquela, Stuart and Elizabeth Ewen published Channels of desire: Mass\n                                Images and the Shaping of American Consciousness (Ewen and Ewen 1992).The authors\n                                discuss consumption as a way of life, followed by concepts and images that support the\n                                cultures of media-market machinery in the Western society: choice, violence, sex, and\n                                ..."
  },
  {
    "count": 109,
    "title": "Postdigital Natures of Planet B -\n                                Welcome to Planet B",
    "links": "https://mh.bmj.com/content/49/4/503",
    "snippet": "Digitalisation has changed the way we understand and\n                                practice health. The recent pandemic has accelerated some of the developments in digital\n                                health and brought about modifications in public access to information. Taking this into\n                                consideration, this programmatic paper sets the stage for and conceptualises\n                                postdigital health practices as a possible field of inquiry within medical\n                                humanities ..."
  },
  {
    "count": 110,
    "title": "Feminist Postdigital Inquiry in the\n                                Ruins of Pandemic Universities ...",
    "links": "https://link.springer.com/article/10.1007/s42438-023-00424-6",
    "snippet": "Sep 15,\n                                2023The rapid rise of artificial intelligence (AI) is posing a significant\n                                threat to democracy, challenging its fundamental principles and values. AI's pervasive\n                                surveillance and infringement on privacy compromise the essence of democracy and\n                                diminish negative freedom. Furthermore, AI's biased assessment of socially disadvantaged\n                                individuals exacerbates inequality and limits their ..."
  },
  {
    "count": 111,
    "title": "Postdigital Living and Algorithms of\n                                Desire | Postdigital ... - Springer",
    "links": "https://www.upress.umn.edu/book-division/books/studious-drift",
    "snippet": "Studious Drift revives the relationship between\n                                studying and the generative space of the studio in service of advancing educational\n                                experimentation for a world where digital tools have become a permanent part of\n                                education. It reveals how the studio is a space-time machine capable of traveling beyond\n                                the limits of conventional online learning to ..."
  },
  {
    "count": 112,
    "title": "Postdigital health practices: new\n                                directions in medical humanities ...",
    "links": "https://www.denverpost.com/login/",
    "snippet": "Trending: Affordable housing crisis 🏡 Colorado's quiet\n                                killer 🥃 Where are Colorado's wolves? 🐺 Colorado bill tracker 📜 Ski area closings\n                                ⛷️"
  },
  {
    "count": 113,
    "title": "Theodor W. Adorno, Artificial\n                                Intelligence, and Democracy in the ...",
    "links": "https://www.academia.edu/84631293/Postdigital_ahora",
    "snippet": "Postdigital ahora. MIRIAM LLAMAS UBIETO. 2020.\n                                Postdigital o post-digital describe una condición, estado de cosas y\n                                cualidad que surge 'después del' suceso de ruptura que supuso la revolución de la\n                                tecnología digital en la década de los 90, especialmente 'detrás de' su expansión\n                                gracias a la WWW. El paso de la era digital a la ..."
  },
  {
    "count": 114,
    "title": "Studious Drift — University of\n                                Minnesota Press",
    "links": "http://www.postdigital.us/",
    "snippet": "Perry Trest : Colorist -\n                                postdigital.us"
  },
  {
    "count": 115,
    "title": "Login - The Denver Post",
    "links": "https://www.archdaily.com/869084/the-website-behind-the-post-digital-drawing-revolution",
    "snippet": "Jacob describes a new \"post-digital\" mode of\n                                drawing that incorporates narrative cues, art historical allusions, and software-enabled\n                                collage techniques. It recalls Mies's sparse one-point ..."
  },
  {
    "count": 116,
    "title": "(PDF) Postdigital ahora | MIRIAM\n                                LLAMAS UBIETO - Academia.edu",
    "links": "https://library.oapen.org/handle/20.500.12657/50036",
    "snippet": "Language. This open access edited volume provides\n                                theoretical, practical, and historical perspectives on art and education in a\n                                post-digital, post-internet era. Recently, these terms have been attached to\n                                artworks, artists, exhibitions, and educational practices that deal with the\n                                relationships between online and offline, digital and physical ..."
  },
  {
    "count": 117,
    "title": "Perry Trest : Colorist -\n                                postdigital.us",
    "links": "https://link.springer.com/article/10.1007/s42438-024-00459-3",
    "snippet": "Feb 24,\n                                2024This paper sketches contemporary transformations of social contract and\n                                outlines a path towards the development of a postdigital social contract for\n                                higher education in the age of Artificial Intelligence (AI). We set the scene by looking\n                                at existing research in AI and education. We then briefly discuss the idea of the\n                                'social contract' as it has been conceived by both classic and ..."
  },
  {
    "count": 118,
    "title": "The Website Behind the \"Post-Digital\"\n                                Drawing Revolution",
    "links": "https://www.ncbi.nlm.nih.gov/pmc/articles/PMC9058750/",
    "snippet": "In this sense, approaches to postdigital\n                                learning which encourage engagement with flexible pedagogies (Barnett 2014) and\n                                criticality will result in transformational learning and prompt learning fluency and\n                                open routes to human flourishing in the postdigital. Flourishing then is about\n                                disjunctive affirmation, as Lather explains in the context of ..."
  },
  {
    "count": 119,
    "title": "Post-Digital, Post-Internet Art and\n                                Education - OAPEN",
    "links": "https://www.ncbi.nlm.nih.gov/pmc/articles/PMC8156568/",
    "snippet": "The postdigital world, in which humans,\n                                technology and space are interwoven, requires methods, tools and practices that support\n                                creativity, participation and multiple voices. Taking an in-depth look at one example,\n                                this paper identifies a future-ready mode of designing collaborative work: the PIP\n                                (postdigital, interactive, participatory ..."
  },
  {
    "count": 120,
    "title": "Towards a Postdigital Social Contract\n                                for Higher Education ... - Springer",
    "links": "https://brill.com/abstract/title/57466",
    "snippet": "Postdigital Positionality Developing Powerful\n                                Inclusive Narratives for Learning, Teaching, Research and Policy in Higher Education\n                                Author: Sarah Hayes. This book challenges the notion that static principles of inclusive\n                                practice can be embedded and measured in Higher Education. It introduces the original\n                                concept of postdigital positionality as ..."
  },
  {
    "count": 121,
    "title": "Postdigital Learning for a Changing\n                                Higher Education - PMC",
    "links": "https://link.springer.com/article/10.1007/s42438-019-00049-8",
    "snippet": "This paper traces ten years of development of the\n                                concept of the postdigital in the works of six scholars (Richard Hall, Ian\n                                Truelove, David White, Mark Childs, David Cormier, and Lawrie Phipps) acting under the\n                                collective pseudonym the 52group. The first part of the paper reproduces the 52group's\n                                manifesto entitled 'Preparing for the postdigital era'. The second part of the\n                                paper ..."
  },
  {
    "count": 122,
    "title": "Postdigital. Interaktiv. Partizipativ.\n                                Mit der PIP-Formel in die Post ...",
    "links": "https://link.springer.com/referenceworkentry/10.1007/978-3-031-35469-4_24-1",
    "snippet": "Jul 14,\n                                2023Buchanan and McPherson's examination of teachers, learners, and their\n                                relation to big data locates the growing emphasis on the technologization of education\n                                alongside a sweep of other neoliberal developments.These are familiar characteristics of\n                                the postdigital school and include the loss of teacher autonomy, evidence-based\n                                education, the increased use of standardized testing, and greater ...\n                          "
  },
  {
    "count": 123,
    "title": "Postdigital Positionality - Developing\n                                Powerful Inclusive Narratives ...",
    "links": "https://files.eric.ed.gov/fulltext/EJ1392611.pdf",
    "snippet": "postdigital era through the use of a review\n                                method. Relevant litera ture was reviewed from which themes were generated in the\n                                present ation of findings. The findings of the study show, among others, that there are\n                                misconceptions regarding the postdigital era and postdigital\n                                education—technologies taking over the entire teaching and learning ...\n                          "
  },
  {
    "count": 124,
    "title": "Ten Years of the Postdigital in the\n                                52group: Reflections and ... - Springer",
    "links": "https://link.springer.com/article/10.1007/s42438-022-00323-2",
    "snippet": "Jun 23, 2022I\n                                now attempt to look beyond this binary to consider what a postdigital assemblage\n                                might look like for OEE. Initially returning to Ryberg et al. (), we encounter some of\n                                the groundwork necessary to position OEE within the postdigital.Drawing on Fawns\n                                (), Jandrić et al. and Knox (), Ryberg et al. suggest that the postdigital is\n                                well-positioned to offer a critical platform for progression ..."
  },
  {
    "count": 125,
    "title": "The Postdigital School |\n                                SpringerLink"
  },
  {
    "count": 126,
    "title": "PDF\n                                Transforming Rural Higher Education for the Postdigital Era"
  },
  {
    "count": 127,
    "title": "PDF"
  },
  {
    "count": 128,
    "title": "Postdigital Outdoor and Environmental\n                                Education - Springer"
  }
]